{
    "pub": {
        "view": {},
        "views": {
            "list": [
                {"id": 0, "name": "upload", "type": "form", "updatePath": false},
                {"id": 1, "name": "download", "type": "form", "updatePath": true}
            ],
            "keys": {"upload": 0, "download": 1}
        },
        "pfdOptios":{"unit": "px","format": "a4"}
        
    },
    "config":{
        "requiredAssets": []      
        
    },    
    "forms":{
        "upload":{}
    },
    
    "data":{
        "compression":{
            "levels":[
                {"label":"Mínima Compresión", "description":"Reducir solo un poco el tamaño del documento.", "quality":0.9, "iconCls":"fa fa-shield bg-blue"},
                {"label":"Compresión Media", "description":"Mejorar la relación Peso / Calidad de nuestro documento.","quality":0.8, "iconCls":"fa fa-check bg-green"},
                {"label":"Máxima Compresión","description":"Reducir el peso lo máximo posible.", "quality":0.6, "iconCls":"fa  fa-exclamation bg-red"}
            ]
        },
        "download":{
            "file":{"size":0, "name":""},
            "numPages":0
        },
        "upload" : {            
            "zoomStep":50,
            "showUpload":true,
            "doc":{"numPages":0},
            "outputPDF":null,
            "inputFile":{"size":0, "name":""},
            "cnvPages":[],
            "paginaActual":0            
        }
    }
    
}
