{
    "auth": "Pablo",
    "features":[
        {"id":1,"order":1,"btn":{ "icon":"fa fa-compress","caption": "Comprimir", "description":"Optimizar la resolución de las imagenes.","href":"#!/comprimir"}},
        {"id":2,"order":2,"btn":{ "icon":"fa fa-file-pdf-o","caption": "Nuevo", "description":"Crear un nuevo archivo pdf.","href":""}},
        {"id":3,"order":3,"btn":{ "icon":"fa  fa-trash-o","caption": "Remover", "description":" Remover páginas de un archivo PDF.","href":""}},
        {"id":4,"order":4,"btn":{ "icon":"fa-camera","caption": "Imagenes", "description":" Construir un archivo pdf a partir de una colección de imagenes.","href":""}},
        {"id":5,"order":6,"btn":{ "icon":"pomb-firma","caption": " Firmar", "description":"Aplicar firma digital a un archivo PDF.","href":""}},        
        {"id":6,"order":7,"btn":{ "icon":"fa fa-git","caption": "Fuente", "description":"Repositorio de la aplicación.","href":"https://gitlab.com/facena_unne/pdfpombero"}}
    ],
    "suportFileTypes":["application/pdf"],
    "viewport":{
        "size":320
    },    
    "pdf":{        
        "pageType":"a4"
    },
    "otherApps":{
        "list":[
            {"id":"SIIF","maxPages": 200, "maxFileSize":10000000}
        ],
        "keys":{
            "SIIF":0
        }
    }
}
